{"name":"Operador lista clientes de Netflix","id":"apis-de-netflix-para-consumo-masivo;operador-lista-clientes-de-netflix","testSteps":[{"number":1,"description":"Given que la aplicación esta operativa","duration":281,"startTime":"2024-09-30T18:57:10.814-05:00[America/Bogota]","result":"SUCCESS","precondition":false,"level":0},{"number":2,"description":"When obtiene la lista: 2 de clientes suscritos","duration":2789,"startTime":"2024-09-30T18:57:11.098-05:00[America/Bogota]","result":"SUCCESS","precondition":false,"level":0,"children":[{"number":3,"description":"obtiene lista de usuarios","duration":2776,"startTime":"2024-09-30T18:57:11.109-05:00[America/Bogota]","result":"SUCCESS","precondition":false,"level":1,"children":[{"number":4,"description":"GET https://reqres.in/api/users?page\u003d2\r","duration":1,"startTime":"2024-09-30T18:57:13.860-05:00[America/Bogota]","result":"SUCCESS","restQuery":{"method":"GET","path":"https://reqres.in/api/users?page\u003d2\r","content":"\r","contentType":"null","requestHeaders":"Accept\u003d*/*\r","requestCookies":"\r","responseHeaders":"Date: Mon, 30 Sep 2024 23:57:13 GMT\r\nContent-Type: application/json; charset\u003dutf-8\r\nTransfer-Encoding: chunked\r\nConnection: keep-alive\r\nReport-To: {\"group\":\"heroku-nel\",\"max_age\":3600,\"endpoints\":[{\"url\":\"https://nel.heroku.com/reports?ts\u003d1727683485\u0026sid\u003dc4c9725f-1ab0-44d8-820f-430df2718e11\u0026s\u003dX%2BFlbv6oLidSCF9XpYw%2F%2FVqpQV7EKzFDt4QLjvGXQI4%3D\"}]}\r\nReporting-Endpoints: heroku-nel\u003dhttps://nel.heroku.com/reports?ts\u003d1727683485\u0026sid\u003dc4c9725f-1ab0-44d8-820f-430df2718e11\u0026s\u003dX%2BFlbv6oLidSCF9XpYw%2F%2FVqpQV7EKzFDt4QLjvGXQI4%3D\r\nNel: {\"report_to\":\"heroku-nel\",\"max_age\":3600,\"success_fraction\":0.005,\"failure_fraction\":0.05,\"response_headers\":[\"Via\"]}\r\nX-Powered-By: Express\r\nAccess-Control-Allow-Origin: *\r\nEtag: W/\"406-ut0vzoCuidvyMf8arZpMpJ6ZRDw\"\r\nVia: 1.1 vegur\r\nCache-Control: max-age\u003d14400\r\nCF-Cache-Status: HIT\r\nAge: 3358\r\nVary: Accept-Encoding\r\nServer: cloudflare\r\nCF-RAY: 8cb8276eddac02dc-MIA\r\nContent-Encoding: gzip\r","responseCookies":"\r","responseBody":"{\n    \"page\": 2,\n    \"per_page\": 6,\n    \"total\": 12,\n    \"total_pages\": 2,\n    \"data\": [\n        {\n            \"id\": 7,\n            \"email\": \"michael.lawson@reqres.in\",\n            \"first_name\": \"Michael\",\n            \"last_name\": \"Lawson\",\n            \"avatar\": \"https://reqres.in/img/faces/7-image.jpg\"\n        },\n        {\n            \"id\": 8,\n            \"email\": \"lindsay.ferguson@reqres.in\",\n            \"first_name\": \"Lindsay\",\n            \"last_name\": \"Ferguson\",\n            \"avatar\": \"https://reqres.in/img/faces/8-image.jpg\"\n        },\n        {\n            \"id\": 9,\n            \"email\": \"tobias.funke@reqres.in\",\n            \"first_name\": \"Tobias\",\n            \"last_name\": \"Funke\",\n            \"avatar\": \"https://reqres.in/img/faces/9-image.jpg\"\n        },\n        {\n            \"id\": 10,\n            \"email\": \"byron.fields@reqres.in\",\n            \"first_name\": \"Byron\",\n            \"last_name\": \"Fields\",\n            \"avatar\": \"https://reqres.in/img/faces/10-image.jpg\"\n        },\n        {\n            \"id\": 11,\n            \"email\": \"george.edwards@reqres.in\",\n            \"first_name\": \"George\",\n            \"last_name\": \"Edwards\",\n            \"avatar\": \"https://reqres.in/img/faces/11-image.jpg\"\n        },\n        {\n            \"id\": 12,\n            \"email\": \"rachel.howell@reqres.in\",\n            \"first_name\": \"Rachel\",\n            \"last_name\": \"Howell\",\n            \"avatar\": \"https://reqres.in/img/faces/12-image.jpg\"\n        }\n    ],\n    \"support\": {\n        \"url\": \"https://reqres.in/#support-heading\",\n        \"text\": \"To keep ReqRes free, contributions towards server costs are appreciated!\"\n    }\n}","statusCode":200},"precondition":false,"level":2}]}]},{"number":5,"description":"Then valida que la respuesta es 200","duration":51,"startTime":"2024-09-30T18:57:13.888-05:00[America/Bogota]","result":"SUCCESS","precondition":false,"level":0}],"userStory":{"id":"apis-de-netflix-para-consumo-masivo","storyName":"Apis de Netflix para consumo masivo","path":"file:///C:/Users/WINDOWS/Desktop/Edwin/3.%20Personal%20y%20Trabajo/NTTDATA/Pruebas%20Automatizadas/2.%20Automatización%20de%20API/Practica%20Auto%20API/ProyectoBaseAutoAPIS/src/test/resources/features/Netflix.feature","type":"feature"},"featureTag":{"name":"Features/Apis de Netflix para consumo masivo","type":"feature","displayName":"Features/Apis de Netflix para consumo masivo"},"title":"Operador lista clientes de Netflix","tags":[{"name":"Netflix","type":"tag","displayName":"Netflix"},{"name":"Apis de Netflix para consumo masivo","type":"feature","displayName":"Apis de Netflix para consumo masivo"},{"name":"t1","type":"tag","displayName":"t1"}],"startTime":"2024-09-30T18:57:09.677-05:00[America/Bogota]","duration":4264,"projectKey":"","isManualTestingUpToDate":false,"manual":false,"testSource":"Cucumber","result":"SUCCESS"}